HiCaptuRe Functions
…
Summarise interactions by distance:
distance_summary

This function allows us to get a summary of the number of
interactions by their distance. This is interesting to compare the
profile of distances between conditions.

dist_sum <- distance_summary(interactions = ibed_annotated,
                             breaks = seq(0, 10^6, 10^5),
                             sample = "ibed1")
dist_sum

## # A tibble: 33 × 6
##    int   total_per_int sample HiCaptuRe breaks        value
##    <chr>         <int> <chr>      <int> <fct>         <int>
##  1 Total            NA ibed1      12312 (0,1e+05]      3118
##  2 B_B            2690 ibed1      12312 (0,1e+05]       746
##  3 B_OE           9622 ibed1      12312 (0,1e+05]      2372
##  4 Total            NA ibed1      12312 (1e+05,2e+05]  3176
##  5 B_B            2690 ibed1      12312 (1e+05,2e+05]   644
##  6 B_OE           9622 ibed1      12312 (1e+05,2e+05]  2532
##  7 Total            NA ibed1      12312 (2e+05,3e+05]  2519
##  8 B_B            2690 ibed1      12312 (2e+05,3e+05]   486
##  9 B_OE           9622 ibed1      12312 (2e+05,3e+05]  2033
## 10 Total            NA ibed1      12312 (3e+05,4e+05]  1418
## # ℹ 23 more rows
…
